   Helicopter EC130-B4
   -------------------

   Registration: D-HSTS (now HB-ZJC)
   C/N: 4073 (2006)
   Operator: private (Heli Gourmet, Johann Lafer)
   Location: -


   WEB-Link: -


   last update: 2014-03-02
